<svg id="Group_1445" data-name="Group 1445" xmlns="http://www.w3.org/2000/svg" width="28" height="28" viewBox="0 0 28 28">
  <rect id="Rectangle_612" data-name="Rectangle 612" width="28" height="28" fill="none"/>
  <g id="Group_1444" data-name="Group 1444" transform="translate(4 2.999)">
    <g id="Group_1440" data-name="Group 1440" transform="translate(11.65)">
      <circle id="Ellipse_73" data-name="Ellipse 73" cx="3.538" cy="3.538" r="3.538" transform="translate(1.179)" fill="none" stroke="#fff" stroke-linecap="round" stroke-linejoin="round" stroke-width="1"/>
      <path id="Path_994" data-name="Path 994" d="M128,98.629a5.546,5.546,0,0,1,9.434,0" transform="translate(-128 -88.761)" fill="none" stroke="#fff" stroke-linecap="round" stroke-linejoin="round" stroke-width="1"/>
    </g>
    <g id="Group_1441" data-name="Group 1441" transform="translate(-1)">
      <circle id="Ellipse_73-2" data-name="Ellipse 73" cx="3.538" cy="3.538" r="3.538" transform="translate(1.179)" fill="none" stroke="#fff" stroke-linecap="round" stroke-linejoin="round" stroke-width="1"/>
      <path id="Path_994-2" data-name="Path 994" d="M128,98.629a5.546,5.546,0,0,1,9.434,0" transform="translate(-128 -88.761)" fill="none" stroke="#fff" stroke-linecap="round" stroke-linejoin="round" stroke-width="1"/>
    </g>
    <g id="Group_1442" data-name="Group 1442" transform="translate(11.65 11.793)">
      <circle id="Ellipse_73-3" data-name="Ellipse 73" cx="3.538" cy="3.538" r="3.538" transform="translate(1.179)" fill="none" stroke="#fff" stroke-linecap="round" stroke-linejoin="round" stroke-width="1"/>
      <path id="Path_994-3" data-name="Path 994" d="M128,98.629a5.546,5.546,0,0,1,9.434,0" transform="translate(-128 -88.761)" fill="none" stroke="#fff" stroke-linecap="round" stroke-linejoin="round" stroke-width="1"/>
    </g>
    <g id="Group_1443" data-name="Group 1443" transform="translate(-1 11.793)">
      <circle id="Ellipse_73-4" data-name="Ellipse 73" cx="3.538" cy="3.538" r="3.538" transform="translate(1.179)" fill="none" stroke="#fff" stroke-linecap="round" stroke-linejoin="round" stroke-width="1"/>
      <path id="Path_994-4" data-name="Path 994" d="M128,98.629a5.546,5.546,0,0,1,9.434,0" transform="translate(-128 -88.761)" fill="none" stroke="#fff" stroke-linecap="round" stroke-linejoin="round" stroke-width="1"/>
    </g>
  </g>
</svg>
